<?xml version="1.0" encoding="utf-8"?>
<!-- Generator: Adobe Illustrator 22.0.1, SVG Export Plug-In . SVG Version: 6.00 Build 0)  -->
<svg version="1.1" id="Слой_1" xmlns="http://www.w3.org/2000/svg" xmlns:xlink="http://www.w3.org/1999/xlink" x="0px" y="0px"
	 viewBox="0 0 200 200" style="enable-background:new 0 0 200 200;" xml:space="preserve">
<style type="text/css">
	.st0{fill:url(#SVGID_1_);}
	.st1{fill:none;stroke:#FFFFFF;stroke-width:3;stroke-miterlimit:10;}
	.st2{display:none;}
	.st3{display:inline;fill:none;}
	.st4{fill:#FFFFFF;}
</style>
<linearGradient id="SVGID_1_" gradientUnits="userSpaceOnUse" x1="101" y1="193.3333" x2="101" y2="3.3333">
	<stop  offset="0" style="stop-color:#98949A"/>
	<stop  offset="1" style="stop-color:#DEDDE3"/>
</linearGradient>
<path class="st0" d="M170.8,195H31.2C17.3,195,6,183.7,6,169.8V30.2C6,16.3,17.3,5,31.2,5h139.7C184.7,5,196,16.3,196,30.2v139.7
	C196,183.7,184.7,195,170.8,195z"/>
<circle class="st1" cx="101.5" cy="101.5" r="84"/>
<g class="st2">
	<path class="st3" d="M214.6,90.2c9.4-9.9,18.1-19.3,27.1-28.4c1.5-1.5,4.2-2.1,6.4-2.5c2-0.4,4.2-0.1,6.3-0.1
		c37.6-0.1,38.5,0.4,62.1,31.7c-16.5,21.2-33.2,42.6-50.7,65.2C248.5,133.8,231.8,112.3,214.6,90.2z M265.8,147.5
		c8.5-19.5,15.9-36.6,23.6-54.3c-16.1,0-30.9,0-47.1,0C250,111,257.3,127.9,265.8,147.5z M265.8,64.2c-7.5,8.1-14,15.2-21.8,23.5
		c15.5,0,28.4,0,43.5,0C279.8,79.3,273.4,72.3,265.8,64.2z M222.6,93.6c10.3,13.2,19.9,25.6,29.5,38.1c-2.1-10.2-6.8-19.1-9.8-28.5
		C239.2,93.5,233.7,90.4,222.6,93.6z M278.4,129.1c0.7,0.4,1.4,0.8,2.1,1.2c9.3-12,18.6-24,27.9-35.9c-0.6-1.1-1.2-2.1-1.7-3.2
		c-4.8,1.8-12,2.3-14,5.8C286.9,107,283,118.3,278.4,129.1z M241.5,67.8c-7.3,7.9-12.4,13.5-18.6,20.1c5.9,0,9.6,0,14,0
		C238.2,82.1,239.5,76.6,241.5,67.8z M308.1,87.1c-5.4-5.8-10.4-11-16.3-17.3C293.1,89.4,293.1,89.4,308.1,87.1z M286.4,80.4
		c0.6-0.4,1.2-0.8,1.9-1.3c-1.2-5.2-2.4-10.5-3.7-16c-4.6,0.3-8.1,0.5-13.3,0.9C277.3,70.4,281.9,75.4,286.4,80.4z M246.5,63.7
		c-1.2,6-2.1,11-3.1,16.1c0.6,0.2,1.1,0.5,1.7,0.7c4.8-5.2,9.5-10.4,15.4-16.8C254.9,63.7,251.2,63.7,246.5,63.7z"/>
</g>
<g>
	<path class="st4" d="M130.6,107.2c0-1.7-1.4-3.1-3.1-3.1c-1.7,0-3.1,1.4-3.1,3.1c0,12.5-10.2,22.7-22.7,22.7s-22.7-10.2-22.7-22.7
		c0-1.7-1.4-3.1-3.1-3.1c-1.7,0-3.1,1.4-3.1,3.1c0,14.9,11.3,27.2,25.8,28.7v8.8h-7.7c-1.7,0-3.1,1.4-3.1,3.1c0,1.7,1.4,3.1,3.1,3.1
		h21.6c1.7,0,3.1-1.4,3.1-3.1c0-1.7-1.4-3.1-3.1-3.1h-7.7v-8.8C119.3,134.4,130.6,122.1,130.6,107.2z"/>
	<path class="st4" d="M101.7,126.2c9.7,0,17.7-7.9,17.7-17.7V72.7c0-9.7-7.9-17.7-17.7-17.7S84,62.9,84,72.7v35.9
		C84,118.3,92,126.2,101.7,126.2z M90.3,72.7c0-6.3,5.1-11.4,11.4-11.4s11.4,5.1,11.4,11.4v35.9c0,6.3-5.1,11.4-11.4,11.4
		c-6.3,0-11.4-5.1-11.4-11.4L90.3,72.7L90.3,72.7z"/>
</g>
</svg>
